{
    "tasks": {
        "Too complex task": {
            "points": 100
        },
        "Sixth task": {
            "points": 60
        },
        "Second task": {
            "points": 56
        },
        "Third Task": {
            "points": 23
        },
        "Seventh Task": {
            "points": 29
        },
        "Fifth Task": {
            "points": 10
        },
        "First task": {
            "points": 39
        },
        "Eighth task": {
            "points": 22
        },
        "Fourth task": {
            "points": 31
        }
    },
    "users": {
        "Rachel": {
            "tasks": {},
            "points": 80,
            "efficiency": 0
        },
        "Gregoriy": {
            "tasks": {},
            "points": 76,
            "efficiency": 0
        },
        "Christ": {
            "tasks": {},
            "points": 25,
            "efficiency": 0
        },
        "John": {
            "tasks": {},
            "points": 89,
            "efficiency": 0
        }
    }
}